<svg width="18" height="18" viewBox="0 0 18 18" fill="none" xmlns="http://www.w3.org/2000/svg">
<path d="M9.00001 0.671753C4.19298 0.671753 0.266197 4.55929 0.266197 9.30317C0.266197 14.0538 4.19985 17.9346 9.00001 17.9346C13.8002 17.9346 17.7338 14.0471 17.7338 9.30317C17.7338 4.55249 13.8071 0.671753 9.00001 0.671753ZM9.00001 3.26118C10.4855 3.26118 11.6202 4.38258 11.6202 5.8506C11.6202 7.31862 10.4855 8.44002 9.00001 8.44002C7.51458 8.44002 6.37987 7.31862 6.37987 5.8506C6.37987 4.38258 7.51458 3.26118 9.00001 3.26118ZM9.00001 15.5151C6.81312 15.5151 4.89443 14.3937 3.75972 12.7557C3.75972 11.0295 7.25325 10.078 9.00001 10.078C10.7468 10.078 14.2403 11.0295 14.2403 12.7557C13.1056 14.3937 11.1869 15.5151 9.00001 15.5151Z" fill="#216DDB"/>
</svg>
